# Distributed under the terms of the GNU General Public License v2

# Unmask the flag which corresponds to ARCH.
-arm64

# Michał Górny <mgorny@gentoo.org> (2021-01-07)
# Prebuilt kernels are supported here.
-dist-kernel

# Sam James <sam@gentoo.org> (2020-10-08)
# PyPy3 works on arm64
-python_targets_pypy3
-python_single_target_pypy3

# David Seifert <soap@gentoo.org (2020-05-17)
# Mono is hopelessly broken on arm64
mono

# Aaron Bauman <bman@gentoo.org> (2019-12-27)
# Mask cpu_flags_arm_neon for all of arm64
# A neon64 USE is being discussed
cpu_flags_arm_neon

# Unmask arm specific USE flags
-cpu_flags_arm_v4
-cpu_flags_arm_v4
-cpu_flags_arm_v5
-cpu_flags_arm_v6
-cpu_flags_arm_v7
-cpu_flags_arm_v8

-cpu_flags_arm_aes
-cpu_flags_arm_crc32
-cpu_flags_arm_edsp
-cpu_flags_arm_sha1
-cpu_flags_arm_sha2
-cpu_flags_arm_thumb
-cpu_flags_arm_thumb2
-cpu_flags_arm_vfp
-cpu_flags_arm_vfpv3
-cpu_flags_arm_vfpv4
-cpu_flags_arm_vfp-d32

# Mattéo Rossillol‑‑Laruelle <beatussum@protonmail.com> (2019‑08‑31)
# Dependency not keyworded (dev-libs/libindicate).
appindicator
ayatana

# Michał Górny <mgorny@gentoo.org> (2018-07-09)
# No OpenCL provider is available on arm64.
opencl

# Mart Raudsepp <leio@gentoo.org> (2018-02-13)
# net-libs/libsmi not tested on arm64 yet
smi

# Mart Raudsepp <leio@gentoo.org> (2017-02-01)
# Unmask systemd since it is keyworded here.
-systemd

# Mart Raudsepp <leio@gentoo.org> (2017-01-28)
# dev-util/valgrind not tested on arm64 yet
# Upstream seems to have architecture support, however
valgrind

# Markus Meier <maekke@gentoo.org> (2010-08-22)
# net-wireless/wimax not tested
wimax

# Samuli Suominen <drac@gentoo.org>
# media-libs/amrnb and media-libs/amrwb not tested.
amr

# No hardware to test by the team
ios
ipod

# Stuff that doesn't make sense on this arch
3dfx
dmi

# Stuff we don't want
mpi
lasi
hardened
pdfannotextractor
prelude
mssql

# havent tested yet
darcs
afs
scanner
zvbi
sid
mms
ieee1394
darcs
bs2b
ladspa
ggi
nut
dvd
fits
lpsol
quvi
zvbi
gts
anthy

# Unmask ARM-only video-cards
-video_cards_exynos
-video_cards_freedreno
-video_cards_lima
-video_cards_imx
-video_cards_nouveau
-video_cards_panfrost
-video_cards_tegra
-video_cards_v3d
-video_cards_vc4

# James Le Cuirot <chewi@gentoo.org>
# Unmask as Vivante is available for arm.
-video_cards_vivante

# Donnie Berkholz <dberkholz@gentoo.org> (2006-02-05)
# Modular X: mask for architectures on which they aren't available
video_cards_glint
video_cards_mga
video_cards_nv
video_cards_r128
video_cards_radeon

# Matt Turner <mattst88@gentoo.org>
# Mask more VIDEO_CARDs added with mesa-8.0
video_cards_amdgpu
video_cards_r100
video_cards_r200
video_cards_r300
video_cards_r600
video_cards_radeonsi

# USE=audit masked prior to testing on alpha, arm, hppa, ppc64, s390, sh.
# Bug #184563, (2007-09-18)
# Robin H. Johnson <robbat2@gentoo.org>
audit
